<?xml version="1.0" encoding="utf-8"?>
<!-- Generator: Adobe Illustrator 21.1.0, SVG Export Plug-In . SVG Version: 6.00 Build 0)  -->
<svg version="1.1" id="Livello_1" xmlns="http://www.w3.org/2000/svg" xmlns:xlink="http://www.w3.org/1999/xlink" x="0px" y="0px"
	 width="181.3px" height="179.5px" viewBox="0 0 181.3 179.5" style="enable-background:new 0 0 181.3 179.5;" xml:space="preserve"
	>
<style type="text/css">
	.st0{fill:#FFFFFF;}
</style>
<g>
	<path class="st0" d="M70.8,28.8l62.3,35.6c0.4,0.2,0.8,0.8,0.8,1.2V114c0,0.5-0.3,1-0.8,1.2l-42,24.3c-0.4,0.2-1,0.2-1.4,0
		L48,115.2c-0.4-0.2-0.8-0.8-0.8-1.2V67.1c0-1.1,1.2-1.9,2.2-1.2l40.2,23.3c0.4,0.2,1,0.2,1.4,0l18.9-11c1-0.5,1-2,0-2.5L47.5,40.1
		c-0.4-0.2-1-0.2-1.4,0L26.3,51.8c-0.4,0.2-0.7,0.8-0.7,1.2v73.4c0,0.5,0.3,1,0.8,1.2l63.5,36.7c0.4,0.2,1,0.2,1.4,0l63.5-36.7
		c0.4-0.2,0.8-0.8,0.8-1.2V53.1c0-0.5-0.3-1-0.8-1.2L91.4,15.2c-0.4-0.2-1-0.2-1.4,0L70.8,26.4C69.8,26.9,69.8,28.3,70.8,28.8z"/>
	<path class="st0" d="M155.5,36.8c0,2.3-1.9,4.2-4.2,4.2c-2.3,0-4.1-1.9-4.1-4.2s1.8-4.2,4.2-4.2C153.8,32.7,155.5,34.5,155.5,36.8z
		 M155.1,36.8c0-2-1.5-3.6-3.6-3.6c-2.1,0-3.6,1.6-3.6,3.6s1.5,3.6,3.6,3.6C153.5,40.4,155.1,38.8,155.1,36.8z M152.2,37.4l1,1.4
		h-0.7l-0.9-1.3c-0.1,0-0.2,0-0.2,0h-1.1v1.3h-0.5v-4.3h1.6c1.1,0,1.8,0.5,1.8,1.4C153.2,36.7,152.9,37.2,152.2,37.4z M151.5,37.1
		c0.8,0,1.2-0.3,1.2-1c0-0.7-0.4-1-1.2-1h-1.1v2C150.4,37.1,151.5,37.1,151.5,37.1z"/>
</g>
</svg>
